---------1(2)
------1(1)
---------0(2)
------------0(3)
---/(0)
------------1(3)
---------1(2)
------0(1)
---------0(2)
---------------1(4)
------------0(3)
depth = 4
mean = 3
var = 0.816497
---------1(2)
------1(1)
---------0(2)
------------0(3)
---/(0)
------------1(3)
---------1(2)
------0(1)
---------0(2)
---------------1(4)
------------0(3)
depth = 4
mean = 3
var = 0.816497
---------1(2)
------1(1)
---------0(2)
------------0(3)
---/(0)
------------1(3)
---------1(2)
------0(1)
---------0(2)
---------------1(4)
------------0(3)
depth = 4
mean = 3
var = 0.816497
