digraph "ant.h"
{
  edge [fontname="Helvetica",fontsize="10",labelfontname="Helvetica",labelfontsize="10"];
  node [fontname="Helvetica",fontsize="10",shape=record];
  Node1 [label="ant.h",height=0.2,width=0.4,color="black", fillcolor="grey75", style="filled", fontcolor="black"];
  Node1 -> Node2 [dir="back",color="midnightblue",fontsize="10",style="solid",fontname="Helvetica"];
  Node2 [label="antthread.h",height=0.2,width=0.4,color="black", fillcolor="white", style="filled",URL="$antthread_8h.html"];
  Node2 -> Node3 [dir="back",color="midnightblue",fontsize="10",style="solid",fontname="Helvetica"];
  Node3 [label="antthread.cpp",height=0.2,width=0.4,color="black", fillcolor="white", style="filled",URL="$antthread_8cpp.html"];
  Node2 -> Node4 [dir="back",color="midnightblue",fontsize="10",style="solid",fontname="Helvetica"];
  Node4 [label="antwin.h",height=0.2,width=0.4,color="black", fillcolor="white", style="filled",URL="$antwin_8h.html"];
  Node4 -> Node5 [dir="back",color="midnightblue",fontsize="10",style="solid",fontname="Helvetica"];
  Node5 [label="antwin.cpp",height=0.2,width=0.4,color="black", fillcolor="white", style="filled",URL="$antwin_8cpp.html"];
  Node4 -> Node6 [dir="back",color="midnightblue",fontsize="10",style="solid",fontname="Helvetica"];
  Node6 [label="main.cpp",height=0.2,width=0.4,color="black", fillcolor="white", style="filled",URL="$main_8cpp.html"];
  Node4 -> Node7 [dir="back",color="midnightblue",fontsize="10",style="solid",fontname="Helvetica"];
  Node7 [label="moc_antwin.cpp",height=0.2,width=0.4,color="black", fillcolor="white", style="filled",URL="$moc__antwin_8cpp.html"];
  Node2 -> Node8 [dir="back",color="midnightblue",fontsize="10",style="solid",fontname="Helvetica"];
  Node8 [label="moc_antthread.cpp",height=0.2,width=0.4,color="black", fillcolor="white", style="filled",URL="$moc__antthread_8cpp.html"];
  Node1 -> Node4 [dir="back",color="midnightblue",fontsize="10",style="solid",fontname="Helvetica"];
}
